Alierwai DataStudio - Solving R 4 Data Science, 2nd-edition: Section 25.3.5 Exercises.
…
In the code chunk mentioned above, typing out all the calls can be tedious, and the code can become repetitive. This is a sign that we should convert our code into a function. Fortunately, we can quickly achieve this by inserting arguments inside doubled braces.

Converts the user supplied variable that uses clock time (e.g., dep_time, arr_time, etc.) into a decimal time (i.e. hours + (minutes / 60)).

# Solution
flights |>
  select(year:sched_dep_time, arr_time, sched_arr_time) |>
  mutate(
    hours = floor(arr_time / 100),
    minutes = arr_time %% 100,
    decimal_time = hours + (minutes / 60)
  )

# A tibble: 336,776 × 10
    year month   day dep_time sched_dep_time arr_time sched_arr_time hours
   <int> <int> <int>    <int>          <int>    <int>          <int> <dbl>
 1  2013     1     1      517            515      830            819     8
 2  2013     1     1      533            529      850            830     8
 3  2013     1     1      542            540      923            850     9
 4  2013     1     1      544            545     1004           1022    10
 5  2013     1     1      554            600      812            837     8
 6  2013     1     1      554            558      740            728     7
 7  2013     1     1      555            600      913            854     9
 8  2013     1     1      557            600      709            723     7
 9  2013     1     1      557            600      838            846     8
10  2013     1     1      558            600      753            745     7
# ℹ 336,766 more rows
# ℹ 2 more variables: minutes <dbl>, decimal_time <dbl>
…
